{
  "__type__": "cc.AnimationClip",
  "_name": "touched",
  "_objFlags": 0,
  "_rawFiles": null,
  "_duration": 0.17,
  "sample": 60,
  "speed": 1,
  "wrapMode": 1,
  "curveData": {
    "props": {
      "scaleX": [
        {
          "frame": 0,
          "value": 1
        },
        {
          "frame": 0.08333333333333333,
          "value": 0.9
        },
        {
          "frame": 0.16666666666666666,
          "value": 1
        }
      ],
      "scaleY": [
        {
          "frame": 0,
          "value": 1
        },
        {
          "frame": 0.08333333333333333,
          "value": 0.9
        },
        {
          "frame": 0.16666666666666666,
          "value": 1
        }
      ]
    }
  },
  "events": []
}